==================================
------ boolean for logic if ------
==================================
//Added by TGH, Project A : 14-Agu-2019
public static boolean checkValidCust(String custId) {
		System.out.println("-------- checkValidCust--------");
		boolean retval = false;
		String sql = "SELECT ACTIVE" +
				+ " FROM CUSTOMER"
				+ " WHERE CUSTOMER_ID = ? ";
		System.out.println("\t\t sql: "+sql);
		Connection conn = null;
		try {
			conn = DBConnection.getConnection();
			PreparedStatement ps = conn.prepareStatement(sql);
			ps.setString(1, custId);
			ResultSet rs = ps.executeQuery();
			HashMap map = new HashMap();
			if(rs.next()) {
				if("Y".equals(rs.getString("ACTIVE"))){
					retval = false;
				}else {
					retval = false;
				}
			}
			else {
				retval = false;
			}
			rs.close();
			ps.close();	
		} catch (Exception ex) {
			System.out.println("Error: "+ex);
			ex.printStackTrace();
		}
		finally {
			try {
				conn.close();
			} catch (SQLException e) {
				e.printStackTrace();
			}
		}
}
//End - Added by TGH, Project A : 14-Agu-2019

//if(!checkValidCust){ //if (false) 
if(checkValidCust){ //if (true) 

}
else{

}

==================================
----- IF ONE ROW SET VALUE -----
==================================
String petugas = admin;
String opertaor = null;
String user= opertaor==null?"N":petugas;