Oracle
================teguh
teguh
12345
================
system
o6hugeT

JBoss =>C:Servers\JBoss servic -> RUN[C:\Servers\JBoss\jboss-eap-6.4.3-demo\bin\standalone.bat]
================
teguh
teguh123!
================

WebLogic=>C:Servers\Weblogic -> RUN [C:C:\Servers\Weblogic\wls12213\user_projects\domains\base_domain\startWebLogic.cmd]
================
teguh
teguh123!
================

WebLogic F:Servers\Weblogic
================
teguh
teguh123!
================

Database user Oracle [Sid = DBName = xe
username=schema 
HR
12345
================
C:\Servers\JBoss\jboss-eap-6.4.3-demo\standalone\deployments\jsp-demo.war